2016/06/01 * guld pre-founding contributions
    koloto:Assets                              100 GULD
    koloto:Income:guld                        -100 GULD
    guld:Liabilities                         -100 GULD
    guld:Equity:koloto                          100 GULD
